semestre_2/sistemas digitais/ProjCPU/ProjCPUEstranho/Contador/simulation/qsim/Contador.msim.vcd
$comment
	File created using the following command:
		vcd file Contador.msim.vcd -direction
$end
$date
	Tue Sep 16 14:39:02 2025
$end
$version
	ModelSim Version 10.5b
$end
$timescale
	1ps
$end

$scope module Contador_vlg_vec_tst $end
$var reg 1 ! clk $end
$var wire 1 " q0 $end
$var wire 1 # q1 $end
$var wire 1 $ q2 $end
$var wire 1 % q3 $end
$var wire 1 & q4 $end
$var wire 1 ' q5 $end
$var wire 1 ( q6 $end
$var wire 1 ) q7 $end

$scope module i1 $end
$var wire 1 * gnd $end
$var wire 1 + vcc $end
$var wire 1 , unknown $end
$var tri1 1 - devclrn $end
$var tri1 1 . devpor $end
$var tri1 1 / devoe $end
$var wire 1 0 ~QUARTUS_CREATED_GND~I_combout $end
$var wire 1 1 clk~input_o $end
$var wire 1 2 clk~inputCLKENA0_outclk $end
$var wire 1 3 inst~q $end
$var wire 1 4 inst~0_combout $end
$var wire 1 5 inst~DUPLICATE_q $end
$var wire 1 6 inst2~0_combout $end
$var wire 1 7 inst2~q $end
$var wire 1 8 inst3~q $end
$var wire 1 9 inst3~0_combout $end
$var wire 1 : inst3~DUPLICATE_q $end
$var wire 1 ; inst4~q $end
$var wire 1 < inst4~0_combout $end
$var wire 1 = inst4~DUPLICATE_q $end
$var wire 1 > inst5~0_combout $end
$var wire 1 ? inst5~q $end
$var wire 1 @ inst5~DUPLICATE_q $end
$var wire 1 A inst6~0_combout $end
$var wire 1 B inst6~q $end
$var wire 1 C inst6~DUPLICATE_q $end
$var wire 1 D inst12~combout $end
$var wire 1 E inst7~0_combout $end
$var wire 1 F inst7~q $end
$var wire 1 G inst7~DUPLICATE_q $end
$var wire 1 H inst8~0_combout $end
$var wire 1 I inst8~q $end
$upscope $end
$upscope $end
$enddefinitions $end
#0
$dumpvars
0!
0"
0#
0$
0%
0&
0'
0(
0)
0*
1+
x,
1-
1.
1/
00
01
02
03
14
05
06
07
08
09
0:
0;
0<
0=
0>
0?
0@
0A
0B
0C
0D
0E
0F
0G
0H
0I
$end
#500000
1!
11
12
13
15
1"
04
16
#1000000
0!
01
02
#1500000
1!
11
12
03
17
05
0"
1#
14
#2000000
0!
01
02
#2500000
1!
11
12
13
15
1"
04
19
06
#3000000
0!
01
02
#3500000
1!
11
12
18
03
1:
07
05
0"
0#
1$
14
#4000000
0!
01
02
#4500000
1!
11
12
13
15
1"
04
16
#5000000
0!
01
02
#5500000
1!
11
12
03
17
05
0"
1#
14
#6000000
0!
01
02
#6500000
1!
11
12
13
15
1"
04
1<
09
06
#7000000
0!
01
02
#7500000
1!
11
12
1;
08
03
1=
0:
07
05
0"
0#
0$
1%
14
#8000000
0!
01
02
#8500000
1!
11
12
13
15
1"
04
16
#9000000
0!
01
02
#9500000
1!
11
12
03
17
05
0"
1#
14
#10000000
0!
01
02
#10500000
1!
11
12
13
15
1"
04
19
06
#11000000
0!
01
02
#11500000
1!
11
12
18
03
1:
07
05
0"
0#
1$
14
#12000000
0!
01
02
#12500000
1!
11
12
13
15
1"
04
16
#13000000
0!
01
02
#13500000
1!
11
12
03
17
05
0"
1#
14
#14000000
0!
01
02
#14500000
1!
11
12
13
15
1"
1D
04
1>
0<
09
06
#15000000
0!
01
02
#15500000
1!
11
12
1@
0;
08
03
1?
0=
0:
07
05
0"
0#
0$
0%
1&
0D
14
#16000000
0!
01
02
#16500000
1!
11
12
13
15
1"
04
16
#17000000
0!
01
02
#17500000
1!
11
12
03
17
05
0"
1#
14
#18000000
0!
01
02
#18500000
1!
11
12
13
15
1"
04
19
06
#19000000
0!
01
02
#19500000
1!
11
12
18
03
1:
07
05
0"
0#
1$
14
#20000000
0!
01
02
#20500000
1!
11
12
13
15
1"
04
16
#21000000
0!
01
02
#21500000
1!
11
12
03
17
05
0"
1#
14
#22000000
0!
01
02
#22500000
1!
11
12
13
15
1"
04
1<
09
06
#23000000
0!
01
02
#23500000
1!
11
12
1;
08
03
1=
0:
07
05
0"
0#
0$
1%
14
#24000000
0!
01
02
#24500000
1!
11
12
13
15
1"
04
16
#25000000
0!
01
02
#25500000
1!
11
12
03
17
05
0"
1#
14
#26000000
0!
01
02
#26500000
1!
11
12
13
15
1"
04
19
06
#27000000
0!
01
02
#27500000
1!
11
12
18
03
1:
07
05
0"
0#
1$
14
#28000000
0!
01
02
#28500000
1!
11
12
13
15
1"
04
16
#29000000
0!
01
02
#29500000
1!
11
12
03
17
05
0"
1#
14
#30000000
0!
01
02
#30500000
1!
11
12
13
15
1"
1D
04
1A
0>
0<
09
06
#31000000
0!
01
02
#31500000
1!
11
12
1C
0@
0;
08
03
1B
0?
0=
0:
07
05
0"
0#
0$
0%
0&
1'
0D
14
#32000000
0!
01
02
#32500000
1!
11
12
13
15
1"
04
16
#33000000
0!
01
02
#33500000
1!
11
12
03
17
05
0"
1#
14
#34000000
0!
01
02
#34500000
1!
11
12
13
15
1"
04
19
06
#35000000
0!
01
02
#35500000
1!
11
12
18
03
1:
07
05
0"
0#
1$
14
#36000000
0!
01
02
#36500000
1!
11
12
13
15
1"
04
16
#37000000
0!
01
02
#37500000
1!
11
12
03
17
05
0"
1#
14
#38000000
0!
01
02
#38500000
1!
11
12
13
15
1"
04
1<
09
06
#39000000
0!
01
02
#39500000
1!
11
12
1;
08
03
1=
0:
07
05
0"
0#
0$
1%
14
#40000000
0!
01
02
#40500000
1!
11
12
13
15
1"
04
16
#41000000
0!
01
02
#41500000
1!
11
12
03
17
05
0"
1#
14
#42000000
0!
01
02
#42500000
1!
11
12
13
15
1"
04
19
06
#43000000
0!
01
02
#43500000
1!
11
12
18
03
1:
07
05
0"
0#
1$
14
#44000000
0!
01
02
#44500000
1!
11
12
13
15
1"
04
16
#45000000
0!
01
02
#45500000
1!
11
12
03
17
05
0"
1#
14
#46000000
0!
01
02
#46500000
1!
11
12
13
15
1"
1D
04
1>
0<
09
06
#47000000
0!
01
02
#47500000
1!
11
12
1@
0;
08
03
1?
0=
0:
07
05
0"
0#
0$
0%
1&
0D
14
1E
0E
#48000000
0!
01
02
#48500000
1!
11
12
13
15
1"
04
16
#49000000
0!
01
02
#49500000
1!
11
12
03
17
05
0"
1#
14
#50000000
0!
01
02
#50500000
1!
11
12
13
15
1"
04
19
06
#51000000
0!
01
02
#51500000
1!
11
12
18
03
1:
07
05
0"
0#
1$
14
#52000000
0!
01
02
#52500000
1!
11
12
13
15
1"
04
16
#53000000
0!
01
02
#53500000
1!
11
12
03
17
05
0"
1#
14
#54000000
0!
01
02
#54500000
1!
11
12
13
15
1"
04
1<
09
06
#55000000
0!
01
02
#55500000
1!
11
12
1;
08
03
1=
0:
07
05
0"
0#
0$
1%
14
#56000000
0!
01
02
#56500000
1!
11
12
13
15
1"
04
16
#57000000
0!
01
02
#57500000
1!
11
12
03
17
05
0"
1#
14
#58000000
0!
01
02
#58500000
1!
11
12
13
15
1"
04
19
06
#59000000
0!
01
02
#59500000
1!
11
12
18
03
1:
07
05
0"
0#
1$
14
#60000000
0!
01
02
#60500000
1!
11
12
13
15
1"
04
16
#61000000
0!
01
02
#61500000
1!
11
12
03
17
05
0"
1#
14
#62000000
0!
01
02
#62500000
1!
11
12
13
15
1"
1D
04
0A
0>
0<
09
06
1E
#63000000
0!
01
02
#63500000
1!
11
12
1G
0C
0@
0;
08
03
1F
0B
0?
0=
0:
07
05
0"
0#
0$
0%
0&
0'
1(
0D
14
#64000000
0!
01
02
#64500000
1!
11
12
13
15
1"
04
16
#65000000
0!
01
02
#65500000
1!
11
12
03
17
05
0"
1#
14
#66000000
0!
01
02
#66500000
1!
11
12
13
15
1"
04
19
06
#67000000
0!
01
02
#67500000
1!
11
12
18
03
1:
07
05
0"
0#
1$
14
#68000000
0!
01
02
#68500000
1!
11
12
13
15
1"
04
16
#69000000
0!
01
02
#69500000
1!
11
12
03
17
05
0"
1#
14
#70000000
0!
01
02
#70500000
1!
11
12
13
15
1"
04
1<
09
06
#71000000
0!
01
02
#71500000
1!
11
12
1;
08
03
1=
0:
07
05
0"
0#
0$
1%
14
#72000000
0!
01
02
#72500000
1!
11
12
13
15
1"
04
16
#73000000
0!
01
02
#73500000
1!
11
12
03
17
05
0"
1#
14
#74000000
0!
01
02
#74500000
1!
11
12
13
15
1"
04
19
06
#75000000
0!
01
02
#75500000
1!
11
12
18
03
1:
07
05
0"
0#
1$
14
#76000000
0!
01
02
#76500000
1!
11
12
13
15
1"
04
16
#77000000
0!
01
02
#77500000
1!
11
12
03
17
05
0"
1#
14
#78000000
0!
01
02
#78500000
1!
11
12
13
15
1"
1D
04
1>
0<
09
06
#79000000
0!
01
02
#79500000
1!
11
12
1@
0;
08
03
1?
0=
0:
07
05
0"
0#
0$
0%
1&
0D
14
#80000000
0!
01
02
#80500000
1!
11
12
13
15
1"
04
16
#81000000
0!
01
02
#81500000
1!
11
12
03
17
05
0"
1#
14
#82000000
0!
01
02
#82500000
1!
11
12
13
15
1"
04
19
06
#83000000
0!
01
02
#83500000
1!
11
12
18
03
1:
07
05
0"
0#
1$
14
#84000000
0!
01
02
#84500000
1!
11
12
13
15
1"
04
16
#85000000
0!
01
02
#85500000
1!
11
12
03
17
05
0"
1#
14
#86000000
0!
01
02
#86500000
1!
11
12
13
15
1"
04
1<
09
06
#87000000
0!
01
02
#87500000
1!
11
12
1;
08
03
1=
0:
07
05
0"
0#
0$
1%
14
#88000000
0!
01
02
#88500000
1!
11
12
13
15
1"
04
16
#89000000
0!
01
02
#89500000
1!
11
12
03
17
05
0"
1#
14
#90000000
0!
01
02
#90500000
1!
11
12
13
15
1"
04
19
06
#91000000
0!
01
02
#91500000
1!
11
12
18
03
1:
07
05
0"
0#
1$
14
#92000000
0!
01
02
#92500000
1!
11
12
13
15
1"
04
16
#93000000
0!
01
02
#93500000
1!
11
12
03
17
05
0"
1#
14
#94000000
0!
01
02
#94500000
1!
11
12
13
15
1"
1D
04
1A
0>
0<
09
06
#95000000
0!
01
02
#95500000
1!
11
12
1C
0@
0;
08
03
1B
0?
0=
0:
07
05
0"
0#
0$
0%
0&
1'
0D
14
#96000000
0!
01
02
#96500000
1!
11
12
13
15
1"
04
16
#97000000
0!
01
02
#97500000
1!
11
12
03
17
05
0"
1#
14
#98000000
0!
01
02
#98500000
1!
11
12
13
15
1"
04
19
06
#99000000
0!
01
02
#99500000
1!
11
12
18
03
1:
07
05
0"
0#
1$
14
